module random-coffee

go 1.18

require (
	github.com/go-redis/redis/v9 v9.0.0-beta.2
	github.com/go-telegram-bot-api/telegram-bot-api/v5 v5.5.1
	github.com/pkg/errors v0.9.1
)

require (
	github.com/cespare/xxhash/v2 v2.1.2 // indirect
	github.com/dgryski/go-rendezvous v0.0.0-20200823014737-9f7001d12a5f // indirect
)
